<?xml version="1.0" encoding="UTF-8"?>
<session version="1.0">
<refactoring comment="Delete resource &apos;PlayersAndStudents&apos;" deleteContents="true" description="Delete resource &apos;PlayersAndStudents&apos;" element1="/PlayersAndStudents" flags="7" id="org.eclipse.ltk.core.refactoring.delete.resources" resources="1" stamp="1563090726131"/>
</session>